(['D:\\BAS\\WORKSPACE\\PYTHON\\LABS\\file\\exe\\file_pdpa.py'],
 ['D:\\BAS\\WORKSPACE\\PYTHON\\LABS\\file\\exe',
  'D:\\BAS\\WORKSPACE\\PYTHON\\LABS\\file\\exe'],
 ['codecs'],
 ['d:\\ais\\softwares\\development\\anaconda3\\lib\\site-packages\\_pyinstaller_hooks_contrib\\hooks\\stdhooks',
  'd:\\ais\\softwares\\development\\anaconda3\\lib\\site-packages\\_pyinstaller_hooks_contrib\\hooks\\stdhooks\\__pycache__',
  'd:\\ais\\softwares\\development\\anaconda3\\lib\\site-packages\\_pyinstaller_hooks_contrib\\hooks\\rthooks',
  'd:\\ais\\softwares\\development\\anaconda3\\lib\\site-packages\\_pyinstaller_hooks_contrib\\hooks\\rthooks\\__pycache__',
  'd:\\ais\\softwares\\development\\anaconda3\\lib\\site-packages\\_pyinstaller_hooks_contrib\\hooks'],
 [],
 [],
 False,
 False,
 False,
 '3.8.5 (default, Sep  3 2020, 21:29:08) [MSC v.1916 64 bit (AMD64)]',
 [('pyi_rth_multiprocessing',
   'D:\\AIS\\SOFTWARES\\DEVELOPMENT\\Anaconda3\\Lib\\site-packages\\PyInstaller\\hooks\\rthooks\\pyi_rth_multiprocessing.py',
   'PYSOURCE'),
  ('pyi_rth_win32api',
   'D:\\AIS\\SOFTWARES\\DEVELOPMENT\\Anaconda3\\Lib\\site-packages\\PyInstaller\\hooks\\rthooks\\pyi_rth_win32api.py',
   'PYSOURCE'),
  ('file_pdpa',
   'D:\\BAS\\WORKSPACE\\PYTHON\\LABS\\file\\exe\\file_pdpa.py',
   'PYSOURCE')],
 [('pywintypes',
   'd:\\ais\\softwares\\development\\anaconda3\\lib\\site-packages\\win32\\lib\\pywintypes.py',
   'PYMODULE'),
  ('distutils.sysconfig',
   'd:\\ais\\softwares\\development\\anaconda3\\lib\\distutils\\sysconfig.py',
   'PYMODULE'),
  ('distutils.text_file',
   'd:\\ais\\softwares\\development\\anaconda3\\lib\\distutils\\text_file.py',
   'PYMODULE'),
  ('_osx_support',
   'd:\\ais\\softwares\\development\\anaconda3\\lib\\_osx_support.py',
   'PYMODULE'),
  ('distutils.log',
   'd:\\ais\\softwares\\development\\anaconda3\\lib\\distutils\\log.py',
   'PYMODULE'),
  ('tempfile',
   'd:\\ais\\softwares\\development\\anaconda3\\lib\\tempfile.py',
   'PYMODULE'),
  ('random',
   'd:\\ais\\softwares\\development\\anaconda3\\lib\\random.py',
   'PYMODULE'),
  ('_strptime',
   'd:\\ais\\softwares\\development\\anaconda3\\lib\\_strptime.py',
   'PYMODULE'),
  ('datetime',
   'd:\\ais\\softwares\\development\\anaconda3\\lib\\datetime.py',
   'PYMODULE'),
  ('calendar',
   'd:\\ais\\softwares\\development\\anaconda3\\lib\\calendar.py',
   'PYMODULE'),
  ('argparse',
   'd:\\ais\\softwares\\development\\anaconda3\\lib\\argparse.py',
   'PYMODULE'),
  ('textwrap',
   'd:\\ais\\softwares\\development\\anaconda3\\lib\\textwrap.py',
   'PYMODULE'),
  ('copy',
   'd:\\ais\\softwares\\development\\anaconda3\\lib\\copy.py',
   'PYMODULE'),
  ('gettext',
   'd:\\ais\\softwares\\development\\anaconda3\\lib\\gettext.py',
   'PYMODULE'),
  ('struct',
   'd:\\ais\\softwares\\development\\anaconda3\\lib\\struct.py',
   'PYMODULE'),
  ('hashlib',
   'd:\\ais\\softwares\\development\\anaconda3\\lib\\hashlib.py',
   'PYMODULE'),
  ('logging',
   'd:\\ais\\softwares\\development\\anaconda3\\lib\\logging\\__init__.py',
   'PYMODULE'),
  ('pickle',
   'd:\\ais\\softwares\\development\\anaconda3\\lib\\pickle.py',
   'PYMODULE'),
  ('pprint',
   'd:\\ais\\softwares\\development\\anaconda3\\lib\\pprint.py',
   'PYMODULE'),
  ('doctest',
   'd:\\ais\\softwares\\development\\anaconda3\\lib\\doctest.py',
   'PYMODULE'),
  ('unittest',
   'd:\\ais\\softwares\\development\\anaconda3\\lib\\unittest\\__init__.py',
   'PYMODULE'),
  ('ntpath',
   'd:\\ais\\softwares\\development\\anaconda3\\lib\\ntpath.py',
   'PYMODULE'),
  ('genericpath',
   'd:\\ais\\softwares\\development\\anaconda3\\lib\\genericpath.py',
   'PYMODULE'),
  ('stat',
   'd:\\ais\\softwares\\development\\anaconda3\\lib\\stat.py',
   'PYMODULE'),
  ('unittest.signals',
   'd:\\ais\\softwares\\development\\anaconda3\\lib\\unittest\\signals.py',
   'PYMODULE'),
  ('signal',
   'd:\\ais\\softwares\\development\\anaconda3\\lib\\signal.py',
   'PYMODULE'),
  ('unittest.main',
   'd:\\ais\\softwares\\development\\anaconda3\\lib\\unittest\\main.py',
   'PYMODULE'),
  ('unittest.runner',
   'd:\\ais\\softwares\\development\\anaconda3\\lib\\unittest\\runner.py',
   'PYMODULE'),
  ('unittest.loader',
   'd:\\ais\\softwares\\development\\anaconda3\\lib\\unittest\\loader.py',
   'PYMODULE'),
  ('fnmatch',
   'd:\\ais\\softwares\\development\\anaconda3\\lib\\fnmatch.py',
   'PYMODULE'),
  ('posixpath',
   'd:\\ais\\softwares\\development\\anaconda3\\lib\\posixpath.py',
   'PYMODULE'),
  ('unittest.suite',
   'd:\\ais\\softwares\\development\\anaconda3\\lib\\unittest\\suite.py',
   'PYMODULE'),
  ('unittest.case',
   'd:\\ais\\softwares\\development\\anaconda3\\lib\\unittest\\case.py',
   'PYMODULE'),
  ('unittest.async_case',
   'd:\\ais\\softwares\\development\\anaconda3\\lib\\unittest\\async_case.py',
   'PYMODULE'),
  ('asyncio',
   'd:\\ais\\softwares\\development\\anaconda3\\lib\\asyncio\\__init__.py',
   'PYMODULE'),
  ('asyncio.unix_events',
   'd:\\ais\\softwares\\development\\anaconda3\\lib\\asyncio\\unix_events.py',
   'PYMODULE'),
  ('asyncio.log',
   'd:\\ais\\softwares\\development\\anaconda3\\lib\\asyncio\\log.py',
   'PYMODULE'),
  ('subprocess',
   'd:\\ais\\softwares\\development\\anaconda3\\lib\\subprocess.py',
   'PYMODULE'),
  ('socket',
   'd:\\ais\\softwares\\development\\anaconda3\\lib\\socket.py',
   'PYMODULE'),
  ('selectors',
   'd:\\ais\\softwares\\development\\anaconda3\\lib\\selectors.py',
   'PYMODULE'),
  ('asyncio.windows_events',
   'd:\\ais\\softwares\\development\\anaconda3\\lib\\asyncio\\windows_events.py',
   'PYMODULE'),
  ('asyncio.windows_utils',
   'd:\\ais\\softwares\\development\\anaconda3\\lib\\asyncio\\windows_utils.py',
   'PYMODULE'),
  ('asyncio.selector_events',
   'd:\\ais\\softwares\\development\\anaconda3\\lib\\asyncio\\selector_events.py',
   'PYMODULE'),
  ('ssl',
   'd:\\ais\\softwares\\development\\anaconda3\\lib\\ssl.py',
   'PYMODULE'),
  ('base64',
   'd:\\ais\\softwares\\development\\anaconda3\\lib\\base64.py',
   'PYMODULE'),
  ('getopt',
   'd:\\ais\\softwares\\development\\anaconda3\\lib\\getopt.py',
   'PYMODULE'),
  ('asyncio.proactor_events',
   'd:\\ais\\softwares\\development\\anaconda3\\lib\\asyncio\\proactor_events.py',
   'PYMODULE'),
  ('asyncio.base_subprocess',
   'd:\\ais\\softwares\\development\\anaconda3\\lib\\asyncio\\base_subprocess.py',
   'PYMODULE'),
  ('asyncio.subprocess',
   'd:\\ais\\softwares\\development\\anaconda3\\lib\\asyncio\\subprocess.py',
   'PYMODULE'),
  ('asyncio.streams',
   'd:\\ais\\softwares\\development\\anaconda3\\lib\\asyncio\\streams.py',
   'PYMODULE'),
  ('asyncio.queues',
   'd:\\ais\\softwares\\development\\anaconda3\\lib\\asyncio\\queues.py',
   'PYMODULE'),
  ('asyncio.runners',
   'd:\\ais\\softwares\\development\\anaconda3\\lib\\asyncio\\runners.py',
   'PYMODULE'),
  ('asyncio.events',
   'd:\\ais\\softwares\\development\\anaconda3\\lib\\asyncio\\events.py',
   'PYMODULE'),
  ('contextvars',
   'd:\\ais\\softwares\\development\\anaconda3\\lib\\contextvars.py',
   'PYMODULE'),
  ('asyncio.trsock',
   'd:\\ais\\softwares\\development\\anaconda3\\lib\\asyncio\\trsock.py',
   'PYMODULE'),
  ('asyncio.staggered',
   'd:\\ais\\softwares\\development\\anaconda3\\lib\\asyncio\\staggered.py',
   'PYMODULE'),
  ('typing',
   'd:\\ais\\softwares\\development\\anaconda3\\lib\\typing.py',
   'PYMODULE'),
  ('asyncio.tasks',
   'd:\\ais\\softwares\\development\\anaconda3\\lib\\asyncio\\tasks.py',
   'PYMODULE'),
  ('concurrent.futures',
   'd:\\ais\\softwares\\development\\anaconda3\\lib\\concurrent\\futures\\__init__.py',
   'PYMODULE'),
  ('concurrent.futures.thread',
   'd:\\ais\\softwares\\development\\anaconda3\\lib\\concurrent\\futures\\thread.py',
   'PYMODULE'),
  ('queue',
   'd:\\ais\\softwares\\development\\anaconda3\\lib\\queue.py',
   'PYMODULE'),
  ('concurrent.futures.process',
   'd:\\ais\\softwares\\development\\anaconda3\\lib\\concurrent\\futures\\process.py',
   'PYMODULE'),
  ('multiprocessing.queues',
   'd:\\ais\\softwares\\development\\anaconda3\\lib\\multiprocessing\\queues.py',
   'PYMODULE'),
  ('multiprocessing.synchronize',
   'd:\\ais\\softwares\\development\\anaconda3\\lib\\multiprocessing\\synchronize.py',
   'PYMODULE'),
  ('multiprocessing.heap',
   'd:\\ais\\softwares\\development\\anaconda3\\lib\\multiprocessing\\heap.py',
   'PYMODULE'),
  ('multiprocessing.resource_tracker',
   'd:\\ais\\softwares\\development\\anaconda3\\lib\\multiprocessing\\resource_tracker.py',
   'PYMODULE'),
  ('multiprocessing.spawn',
   'd:\\ais\\softwares\\development\\anaconda3\\lib\\multiprocessing\\spawn.py',
   'PYMODULE'),
  ('runpy',
   'd:\\ais\\softwares\\development\\anaconda3\\lib\\runpy.py',
   'PYMODULE'),
  ('pkgutil',
   'd:\\ais\\softwares\\development\\anaconda3\\lib\\pkgutil.py',
   'PYMODULE'),
  ('zipimport',
   'd:\\ais\\softwares\\development\\anaconda3\\lib\\zipimport.py',
   'PYMODULE'),
  ('pathlib',
   'd:\\ais\\softwares\\development\\anaconda3\\lib\\pathlib.py',
   'PYMODULE'),
  ('urllib.parse',
   'd:\\ais\\softwares\\development\\anaconda3\\lib\\urllib\\parse.py',
   'PYMODULE'),
  ('urllib',
   'd:\\ais\\softwares\\development\\anaconda3\\lib\\urllib\\__init__.py',
   'PYMODULE'),
  ('importlib.abc',
   'd:\\ais\\softwares\\development\\anaconda3\\lib\\importlib\\abc.py',
   'PYMODULE'),
  ('importlib._bootstrap_external',
   'd:\\ais\\softwares\\development\\anaconda3\\lib\\importlib\\_bootstrap_external.py',
   'PYMODULE'),
  ('importlib.metadata',
   'd:\\ais\\softwares\\development\\anaconda3\\lib\\importlib\\metadata.py',
   'PYMODULE'),
  ('zipfile',
   'd:\\ais\\softwares\\development\\anaconda3\\lib\\zipfile.py',
   'PYMODULE'),
  ('py_compile',
   'd:\\ais\\softwares\\development\\anaconda3\\lib\\py_compile.py',
   'PYMODULE'),
  ('lzma',
   'd:\\ais\\softwares\\development\\anaconda3\\lib\\lzma.py',
   'PYMODULE'),
  ('_compression',
   'd:\\ais\\softwares\\development\\anaconda3\\lib\\_compression.py',
   'PYMODULE'),
  ('bz2',
   'd:\\ais\\softwares\\development\\anaconda3\\lib\\bz2.py',
   'PYMODULE'),
  ('email',
   'd:\\ais\\softwares\\development\\anaconda3\\lib\\email\\__init__.py',
   'PYMODULE'),
  ('email.parser',
   'd:\\ais\\softwares\\development\\anaconda3\\lib\\email\\parser.py',
   'PYMODULE'),
  ('email._policybase',
   'd:\\ais\\softwares\\development\\anaconda3\\lib\\email\\_policybase.py',
   'PYMODULE'),
  ('email.utils',
   'd:\\ais\\softwares\\development\\anaconda3\\lib\\email\\utils.py',
   'PYMODULE'),
  ('email._parseaddr',
   'd:\\ais\\softwares\\development\\anaconda3\\lib\\email\\_parseaddr.py',
   'PYMODULE'),
  ('email.feedparser',
   'd:\\ais\\softwares\\development\\anaconda3\\lib\\email\\feedparser.py',
   'PYMODULE'),
  ('email.message',
   'd:\\ais\\softwares\\development\\anaconda3\\lib\\email\\message.py',
   'PYMODULE'),
  ('email.policy',
   'd:\\ais\\softwares\\development\\anaconda3\\lib\\email\\policy.py',
   'PYMODULE'),
  ('email.contentmanager',
   'd:\\ais\\softwares\\development\\anaconda3\\lib\\email\\contentmanager.py',
   'PYMODULE'),
  ('email.quoprimime',
   'd:\\ais\\softwares\\development\\anaconda3\\lib\\email\\quoprimime.py',
   'PYMODULE'),
  ('email.headerregistry',
   'd:\\ais\\softwares\\development\\anaconda3\\lib\\email\\headerregistry.py',
   'PYMODULE'),
  ('email.iterators',
   'd:\\ais\\softwares\\development\\anaconda3\\lib\\email\\iterators.py',
   'PYMODULE'),
  ('email.generator',
   'd:\\ais\\softwares\\development\\anaconda3\\lib\\email\\generator.py',
   'PYMODULE'),
  ('email._encoded_words',
   'd:\\ais\\softwares\\development\\anaconda3\\lib\\email\\_encoded_words.py',
   'PYMODULE'),
  ('quopri',
   'd:\\ais\\softwares\\development\\anaconda3\\lib\\quopri.py',
   'PYMODULE'),
  ('uu', 'd:\\ais\\softwares\\development\\anaconda3\\lib\\uu.py', 'PYMODULE'),
  ('optparse',
   'd:\\ais\\softwares\\development\\anaconda3\\lib\\optparse.py',
   'PYMODULE'),
  ('email._header_value_parser',
   'd:\\ais\\softwares\\development\\anaconda3\\lib\\email\\_header_value_parser.py',
   'PYMODULE'),
  ('email.header',
   'd:\\ais\\softwares\\development\\anaconda3\\lib\\email\\header.py',
   'PYMODULE'),
  ('email.base64mime',
   'd:\\ais\\softwares\\development\\anaconda3\\lib\\email\\base64mime.py',
   'PYMODULE'),
  ('email.charset',
   'd:\\ais\\softwares\\development\\anaconda3\\lib\\email\\charset.py',
   'PYMODULE'),
  ('email.encoders',
   'd:\\ais\\softwares\\development\\anaconda3\\lib\\email\\encoders.py',
   'PYMODULE'),
  ('email.errors',
   'd:\\ais\\softwares\\development\\anaconda3\\lib\\email\\errors.py',
   'PYMODULE'),
  ('csv',
   'd:\\ais\\softwares\\development\\anaconda3\\lib\\csv.py',
   'PYMODULE'),
  ('tokenize',
   'd:\\ais\\softwares\\development\\anaconda3\\lib\\tokenize.py',
   'PYMODULE'),
  ('token',
   'd:\\ais\\softwares\\development\\anaconda3\\lib\\token.py',
   'PYMODULE'),
  ('importlib._bootstrap',
   'd:\\ais\\softwares\\development\\anaconda3\\lib\\importlib\\_bootstrap.py',
   'PYMODULE'),
  ('importlib',
   'd:\\ais\\softwares\\development\\anaconda3\\lib\\importlib\\__init__.py',
   'PYMODULE'),
  ('importlib.util',
   'd:\\ais\\softwares\\development\\anaconda3\\lib\\importlib\\util.py',
   'PYMODULE'),
  ('importlib.machinery',
   'd:\\ais\\softwares\\development\\anaconda3\\lib\\importlib\\machinery.py',
   'PYMODULE'),
  ('multiprocessing.process',
   'd:\\ais\\softwares\\development\\anaconda3\\lib\\multiprocessing\\process.py',
   'PYMODULE'),
  ('multiprocessing.util',
   'd:\\ais\\softwares\\development\\anaconda3\\lib\\multiprocessing\\util.py',
   'PYMODULE'),
  ('multiprocessing.forkserver',
   'd:\\ais\\softwares\\development\\anaconda3\\lib\\multiprocessing\\forkserver.py',
   'PYMODULE'),
  ('multiprocessing.context',
   'd:\\ais\\softwares\\development\\anaconda3\\lib\\multiprocessing\\context.py',
   'PYMODULE'),
  ('multiprocessing.popen_spawn_win32',
   'd:\\ais\\softwares\\development\\anaconda3\\lib\\multiprocessing\\popen_spawn_win32.py',
   'PYMODULE'),
  ('multiprocessing.popen_forkserver',
   'd:\\ais\\softwares\\development\\anaconda3\\lib\\multiprocessing\\popen_forkserver.py',
   'PYMODULE'),
  ('multiprocessing.popen_spawn_posix',
   'd:\\ais\\softwares\\development\\anaconda3\\lib\\multiprocessing\\popen_spawn_posix.py',
   'PYMODULE'),
  ('multiprocessing.popen_fork',
   'd:\\ais\\softwares\\development\\anaconda3\\lib\\multiprocessing\\popen_fork.py',
   'PYMODULE'),
  ('multiprocessing.sharedctypes',
   'd:\\ais\\softwares\\development\\anaconda3\\lib\\multiprocessing\\sharedctypes.py',
   'PYMODULE'),
  ('ctypes',
   'd:\\ais\\softwares\\development\\anaconda3\\lib\\ctypes\\__init__.py',
   'PYMODULE'),
  ('ctypes._endian',
   'd:\\ais\\softwares\\development\\anaconda3\\lib\\ctypes\\_endian.py',
   'PYMODULE'),
  ('multiprocessing.pool',
   'd:\\ais\\softwares\\development\\anaconda3\\lib\\multiprocessing\\pool.py',
   'PYMODULE'),
  ('multiprocessing.dummy',
   'd:\\ais\\softwares\\development\\anaconda3\\lib\\multiprocessing\\dummy\\__init__.py',
   'PYMODULE'),
  ('multiprocessing.dummy.connection',
   'd:\\ais\\softwares\\development\\anaconda3\\lib\\multiprocessing\\dummy\\connection.py',
   'PYMODULE'),
  ('multiprocessing.managers',
   'd:\\ais\\softwares\\development\\anaconda3\\lib\\multiprocessing\\managers.py',
   'PYMODULE'),
  ('multiprocessing.shared_memory',
   'd:\\ais\\softwares\\development\\anaconda3\\lib\\multiprocessing\\shared_memory.py',
   'PYMODULE'),
  ('secrets',
   'd:\\ais\\softwares\\development\\anaconda3\\lib\\secrets.py',
   'PYMODULE'),
  ('hmac',
   'd:\\ais\\softwares\\development\\anaconda3\\lib\\hmac.py',
   'PYMODULE'),
  ('multiprocessing.reduction',
   'd:\\ais\\softwares\\development\\anaconda3\\lib\\multiprocessing\\reduction.py',
   'PYMODULE'),
  ('multiprocessing.resource_sharer',
   'd:\\ais\\softwares\\development\\anaconda3\\lib\\multiprocessing\\resource_sharer.py',
   'PYMODULE'),
  ('multiprocessing.connection',
   'd:\\ais\\softwares\\development\\anaconda3\\lib\\multiprocessing\\connection.py',
   'PYMODULE'),
  ('xmlrpc.client',
   'd:\\ais\\softwares\\development\\anaconda3\\lib\\xmlrpc\\client.py',
   'PYMODULE'),
  ('xmlrpc',
   'd:\\ais\\softwares\\development\\anaconda3\\lib\\xmlrpc\\__init__.py',
   'PYMODULE'),
  ('gzip',
   'd:\\ais\\softwares\\development\\anaconda3\\lib\\gzip.py',
   'PYMODULE'),
  ('xml.parsers.expat',
   'd:\\ais\\softwares\\development\\anaconda3\\lib\\xml\\parsers\\expat.py',
   'PYMODULE'),
  ('xml.parsers',
   'd:\\ais\\softwares\\development\\anaconda3\\lib\\xml\\parsers\\__init__.py',
   'PYMODULE'),
  ('xml',
   'd:\\ais\\softwares\\development\\anaconda3\\lib\\xml\\__init__.py',
   'PYMODULE'),
  ('xml.sax.expatreader',
   'd:\\ais\\softwares\\development\\anaconda3\\lib\\xml\\sax\\expatreader.py',
   'PYMODULE'),
  ('xml.sax.saxutils',
   'd:\\ais\\softwares\\development\\anaconda3\\lib\\xml\\sax\\saxutils.py',
   'PYMODULE'),
  ('urllib.request',
   'd:\\ais\\softwares\\development\\anaconda3\\lib\\urllib\\request.py',
   'PYMODULE'),
  ('getpass',
   'd:\\ais\\softwares\\development\\anaconda3\\lib\\getpass.py',
   'PYMODULE'),
  ('nturl2path',
   'd:\\ais\\softwares\\development\\anaconda3\\lib\\nturl2path.py',
   'PYMODULE'),
  ('ftplib',
   'd:\\ais\\softwares\\development\\anaconda3\\lib\\ftplib.py',
   'PYMODULE'),
  ('netrc',
   'd:\\ais\\softwares\\development\\anaconda3\\lib\\netrc.py',
   'PYMODULE'),
  ('shlex',
   'd:\\ais\\softwares\\development\\anaconda3\\lib\\shlex.py',
   'PYMODULE'),
  ('mimetypes',
   'd:\\ais\\softwares\\development\\anaconda3\\lib\\mimetypes.py',
   'PYMODULE'),
  ('http.cookiejar',
   'd:\\ais\\softwares\\development\\anaconda3\\lib\\http\\cookiejar.py',
   'PYMODULE'),
  ('http',
   'd:\\ais\\softwares\\development\\anaconda3\\lib\\http\\__init__.py',
   'PYMODULE'),
  ('urllib.response',
   'd:\\ais\\softwares\\development\\anaconda3\\lib\\urllib\\response.py',
   'PYMODULE'),
  ('urllib.error',
   'd:\\ais\\softwares\\development\\anaconda3\\lib\\urllib\\error.py',
   'PYMODULE'),
  ('xml.sax',
   'd:\\ais\\softwares\\development\\anaconda3\\lib\\xml\\sax\\__init__.py',
   'PYMODULE'),
  ('xml.sax.handler',
   'd:\\ais\\softwares\\development\\anaconda3\\lib\\xml\\sax\\handler.py',
   'PYMODULE'),
  ('xml.sax._exceptions',
   'd:\\ais\\softwares\\development\\anaconda3\\lib\\xml\\sax\\_exceptions.py',
   'PYMODULE'),
  ('xml.sax.xmlreader',
   'd:\\ais\\softwares\\development\\anaconda3\\lib\\xml\\sax\\xmlreader.py',
   'PYMODULE'),
  ('http.client',
   'd:\\ais\\softwares\\development\\anaconda3\\lib\\http\\client.py',
   'PYMODULE'),
  ('decimal',
   'd:\\ais\\softwares\\development\\anaconda3\\lib\\decimal.py',
   'PYMODULE'),
  ('_pydecimal',
   'd:\\ais\\softwares\\development\\anaconda3\\lib\\_pydecimal.py',
   'PYMODULE'),
  ('numbers',
   'd:\\ais\\softwares\\development\\anaconda3\\lib\\numbers.py',
   'PYMODULE'),
  ('multiprocessing',
   'd:\\ais\\softwares\\development\\anaconda3\\lib\\multiprocessing\\__init__.py',
   'PYMODULE'),
  ('concurrent.futures._base',
   'd:\\ais\\softwares\\development\\anaconda3\\lib\\concurrent\\futures\\_base.py',
   'PYMODULE'),
  ('concurrent',
   'd:\\ais\\softwares\\development\\anaconda3\\lib\\concurrent\\__init__.py',
   'PYMODULE'),
  ('asyncio.base_tasks',
   'd:\\ais\\softwares\\development\\anaconda3\\lib\\asyncio\\base_tasks.py',
   'PYMODULE'),
  ('asyncio.locks',
   'd:\\ais\\softwares\\development\\anaconda3\\lib\\asyncio\\locks.py',
   'PYMODULE'),
  ('asyncio.sslproto',
   'd:\\ais\\softwares\\development\\anaconda3\\lib\\asyncio\\sslproto.py',
   'PYMODULE'),
  ('asyncio.transports',
   'd:\\ais\\softwares\\development\\anaconda3\\lib\\asyncio\\transports.py',
   'PYMODULE'),
  ('asyncio.base_events',
   'd:\\ais\\softwares\\development\\anaconda3\\lib\\asyncio\\base_events.py',
   'PYMODULE'),
  ('asyncio.protocols',
   'd:\\ais\\softwares\\development\\anaconda3\\lib\\asyncio\\protocols.py',
   'PYMODULE'),
  ('asyncio.futures',
   'd:\\ais\\softwares\\development\\anaconda3\\lib\\asyncio\\futures.py',
   'PYMODULE'),
  ('asyncio.coroutines',
   'd:\\ais\\softwares\\development\\anaconda3\\lib\\asyncio\\coroutines.py',
   'PYMODULE'),
  ('asyncio.base_futures',
   'd:\\ais\\softwares\\development\\anaconda3\\lib\\asyncio\\base_futures.py',
   'PYMODULE'),
  ('asyncio.exceptions',
   'd:\\ais\\softwares\\development\\anaconda3\\lib\\asyncio\\exceptions.py',
   'PYMODULE'),
  ('asyncio.format_helpers',
   'd:\\ais\\softwares\\development\\anaconda3\\lib\\asyncio\\format_helpers.py',
   'PYMODULE'),
  ('asyncio.constants',
   'd:\\ais\\softwares\\development\\anaconda3\\lib\\asyncio\\constants.py',
   'PYMODULE'),
  ('unittest.result',
   'd:\\ais\\softwares\\development\\anaconda3\\lib\\unittest\\result.py',
   'PYMODULE'),
  ('unittest.util',
   'd:\\ais\\softwares\\development\\anaconda3\\lib\\unittest\\util.py',
   'PYMODULE'),
  ('pdb',
   'd:\\ais\\softwares\\development\\anaconda3\\lib\\pdb.py',
   'PYMODULE'),
  ('pydoc',
   'd:\\ais\\softwares\\development\\anaconda3\\lib\\pydoc.py',
   'PYMODULE'),
  ('webbrowser',
   'd:\\ais\\softwares\\development\\anaconda3\\lib\\webbrowser.py',
   'PYMODULE'),
  ('http.server',
   'd:\\ais\\softwares\\development\\anaconda3\\lib\\http\\server.py',
   'PYMODULE'),
  ('socketserver',
   'd:\\ais\\softwares\\development\\anaconda3\\lib\\socketserver.py',
   'PYMODULE'),
  ('html',
   'd:\\ais\\softwares\\development\\anaconda3\\lib\\html\\__init__.py',
   'PYMODULE'),
  ('html.entities',
   'd:\\ais\\softwares\\development\\anaconda3\\lib\\html\\entities.py',
   'PYMODULE'),
  ('pydoc_data.topics',
   'd:\\ais\\softwares\\development\\anaconda3\\lib\\pydoc_data\\topics.py',
   'PYMODULE'),
  ('pydoc_data',
   'd:\\ais\\softwares\\development\\anaconda3\\lib\\pydoc_data\\__init__.py',
   'PYMODULE'),
  ('tty',
   'd:\\ais\\softwares\\development\\anaconda3\\lib\\tty.py',
   'PYMODULE'),
  ('sysconfig',
   'd:\\ais\\softwares\\development\\anaconda3\\lib\\sysconfig.py',
   'PYMODULE'),
  ('platform',
   'd:\\ais\\softwares\\development\\anaconda3\\lib\\platform.py',
   'PYMODULE'),
  ('plistlib',
   'd:\\ais\\softwares\\development\\anaconda3\\lib\\plistlib.py',
   'PYMODULE'),
  ('readline',
   'd:\\ais\\softwares\\development\\anaconda3\\lib\\site-packages\\readline.py',
   'PYMODULE'),
  ('pyreadline.console',
   'd:\\ais\\softwares\\development\\anaconda3\\lib\\site-packages\\pyreadline\\console\\__init__.py',
   'PYMODULE'),
  ('pyreadline.console.console',
   'd:\\ais\\softwares\\development\\anaconda3\\lib\\site-packages\\pyreadline\\console\\console.py',
   'PYMODULE'),
  ('pyreadline.console.event',
   'd:\\ais\\softwares\\development\\anaconda3\\lib\\site-packages\\pyreadline\\console\\event.py',
   'PYMODULE'),
  ('ctypes.wintypes',
   'd:\\ais\\softwares\\development\\anaconda3\\lib\\ctypes\\wintypes.py',
   'PYMODULE'),
  ('ctypes.util',
   'd:\\ais\\softwares\\development\\anaconda3\\lib\\ctypes\\util.py',
   'PYMODULE'),
  ('ctypes._aix',
   'd:\\ais\\softwares\\development\\anaconda3\\lib\\ctypes\\_aix.py',
   'PYMODULE'),
  ('ctypes.macholib.dyld',
   'd:\\ais\\softwares\\development\\anaconda3\\lib\\ctypes\\macholib\\dyld.py',
   'PYMODULE'),
  ('ctypes.macholib',
   'd:\\ais\\softwares\\development\\anaconda3\\lib\\ctypes\\macholib\\__init__.py',
   'PYMODULE'),
  ('ctypes.macholib.dylib',
   'd:\\ais\\softwares\\development\\anaconda3\\lib\\ctypes\\macholib\\dylib.py',
   'PYMODULE'),
  ('ctypes.macholib.framework',
   'd:\\ais\\softwares\\development\\anaconda3\\lib\\ctypes\\macholib\\framework.py',
   'PYMODULE'),
  ('pyreadline.console.ansi',
   'd:\\ais\\softwares\\development\\anaconda3\\lib\\site-packages\\pyreadline\\console\\ansi.py',
   'PYMODULE'),
  ('pyreadline.keysyms',
   'd:\\ais\\softwares\\development\\anaconda3\\lib\\site-packages\\pyreadline\\keysyms\\__init__.py',
   'PYMODULE'),
  ('pyreadline.keysyms.keysyms',
   'd:\\ais\\softwares\\development\\anaconda3\\lib\\site-packages\\pyreadline\\keysyms\\keysyms.py',
   'PYMODULE'),
  ('pyreadline.keysyms.common',
   'd:\\ais\\softwares\\development\\anaconda3\\lib\\site-packages\\pyreadline\\keysyms\\common.py',
   'PYMODULE'),
  ('pyreadline.keysyms.ironpython_keysyms',
   'd:\\ais\\softwares\\development\\anaconda3\\lib\\site-packages\\pyreadline\\keysyms\\ironpython_keysyms.py',
   'PYMODULE'),
  ('pyreadline.keysyms.winconstants',
   'd:\\ais\\softwares\\development\\anaconda3\\lib\\site-packages\\pyreadline\\keysyms\\winconstants.py',
   'PYMODULE'),
  ('pyreadline.logger',
   'd:\\ais\\softwares\\development\\anaconda3\\lib\\site-packages\\pyreadline\\logger.py',
   'PYMODULE'),
  ('logging.handlers',
   'd:\\ais\\softwares\\development\\anaconda3\\lib\\logging\\handlers.py',
   'PYMODULE'),
  ('win32evtlogutil',
   'd:\\ais\\softwares\\development\\anaconda3\\lib\\site-packages\\win32\\lib\\win32evtlogutil.py',
   'PYMODULE'),
  ('winerror',
   'd:\\ais\\softwares\\development\\anaconda3\\lib\\site-packages\\win32\\lib\\winerror.py',
   'PYMODULE'),
  ('win32con',
   'd:\\ais\\softwares\\development\\anaconda3\\lib\\site-packages\\win32\\lib\\win32con.py',
   'PYMODULE'),
  ('smtplib',
   'd:\\ais\\softwares\\development\\anaconda3\\lib\\smtplib.py',
   'PYMODULE'),
  ('pyreadline.unicode_helper',
   'd:\\ais\\softwares\\development\\anaconda3\\lib\\site-packages\\pyreadline\\unicode_helper.py',
   'PYMODULE'),
  ('pyreadline.py3k_compat',
   'd:\\ais\\softwares\\development\\anaconda3\\lib\\site-packages\\pyreadline\\py3k_compat.py',
   'PYMODULE'),
  ('pyreadline.console.ironpython_console',
   'd:\\ais\\softwares\\development\\anaconda3\\lib\\site-packages\\pyreadline\\console\\ironpython_console.py',
   'PYMODULE'),
  ('pyreadline',
   'd:\\ais\\softwares\\development\\anaconda3\\lib\\site-packages\\pyreadline\\__init__.py',
   'PYMODULE'),
  ('pyreadline.release',
   'd:\\ais\\softwares\\development\\anaconda3\\lib\\site-packages\\pyreadline\\release.py',
   'PYMODULE'),
  ('pyreadline.modes',
   'd:\\ais\\softwares\\development\\anaconda3\\lib\\site-packages\\pyreadline\\modes\\__init__.py',
   'PYMODULE'),
  ('pyreadline.modes.vi',
   'd:\\ais\\softwares\\development\\anaconda3\\lib\\site-packages\\pyreadline\\modes\\vi.py',
   'PYMODULE'),
  ('pyreadline.lineeditor.history',
   'd:\\ais\\softwares\\development\\anaconda3\\lib\\site-packages\\pyreadline\\lineeditor\\history.py',
   'PYMODULE'),
  ('pyreadline.lineeditor.lineobj',
   'd:\\ais\\softwares\\development\\anaconda3\\lib\\site-packages\\pyreadline\\lineeditor\\lineobj.py',
   'PYMODULE'),
  ('pyreadline.lineeditor.wordmatcher',
   'd:\\ais\\softwares\\development\\anaconda3\\lib\\site-packages\\pyreadline\\lineeditor\\wordmatcher.py',
   'PYMODULE'),
  ('pyreadline.modes.notemacs',
   'd:\\ais\\softwares\\development\\anaconda3\\lib\\site-packages\\pyreadline\\modes\\notemacs.py',
   'PYMODULE'),
  ('pyreadline.modes.emacs',
   'd:\\ais\\softwares\\development\\anaconda3\\lib\\site-packages\\pyreadline\\modes\\emacs.py',
   'PYMODULE'),
  ('pyreadline.modes.basemode',
   'd:\\ais\\softwares\\development\\anaconda3\\lib\\site-packages\\pyreadline\\modes\\basemode.py',
   'PYMODULE'),
  ('pyreadline.error',
   'd:\\ais\\softwares\\development\\anaconda3\\lib\\site-packages\\pyreadline\\error.py',
   'PYMODULE'),
  ('pyreadline.lineeditor',
   'd:\\ais\\softwares\\development\\anaconda3\\lib\\site-packages\\pyreadline\\lineeditor\\__init__.py',
   'PYMODULE'),
  ('pyreadline.clipboard',
   'd:\\ais\\softwares\\development\\anaconda3\\lib\\site-packages\\pyreadline\\clipboard\\__init__.py',
   'PYMODULE'),
  ('pyreadline.clipboard.win32_clipboard',
   'd:\\ais\\softwares\\development\\anaconda3\\lib\\site-packages\\pyreadline\\clipboard\\win32_clipboard.py',
   'PYMODULE'),
  ('pyreadline.clipboard.no_clipboard',
   'd:\\ais\\softwares\\development\\anaconda3\\lib\\site-packages\\pyreadline\\clipboard\\no_clipboard.py',
   'PYMODULE'),
  ('pyreadline.clipboard.ironpython_clipboard',
   'd:\\ais\\softwares\\development\\anaconda3\\lib\\site-packages\\pyreadline\\clipboard\\ironpython_clipboard.py',
   'PYMODULE'),
  ('pyreadline.rlmain',
   'd:\\ais\\softwares\\development\\anaconda3\\lib\\site-packages\\pyreadline\\rlmain.py',
   'PYMODULE'),
  ('glob',
   'd:\\ais\\softwares\\development\\anaconda3\\lib\\glob.py',
   'PYMODULE'),
  ('code',
   'd:\\ais\\softwares\\development\\anaconda3\\lib\\code.py',
   'PYMODULE'),
  ('codeop',
   'd:\\ais\\softwares\\development\\anaconda3\\lib\\codeop.py',
   'PYMODULE'),
  ('dis',
   'd:\\ais\\softwares\\development\\anaconda3\\lib\\dis.py',
   'PYMODULE'),
  ('opcode',
   'd:\\ais\\softwares\\development\\anaconda3\\lib\\opcode.py',
   'PYMODULE'),
  ('bdb',
   'd:\\ais\\softwares\\development\\anaconda3\\lib\\bdb.py',
   'PYMODULE'),
  ('cmd',
   'd:\\ais\\softwares\\development\\anaconda3\\lib\\cmd.py',
   'PYMODULE'),
  ('inspect',
   'd:\\ais\\softwares\\development\\anaconda3\\lib\\inspect.py',
   'PYMODULE'),
  ('ast',
   'd:\\ais\\softwares\\development\\anaconda3\\lib\\ast.py',
   'PYMODULE'),
  ('difflib',
   'd:\\ais\\softwares\\development\\anaconda3\\lib\\difflib.py',
   'PYMODULE'),
  ('__future__',
   'd:\\ais\\softwares\\development\\anaconda3\\lib\\__future__.py',
   'PYMODULE'),
  ('_compat_pickle',
   'd:\\ais\\softwares\\development\\anaconda3\\lib\\_compat_pickle.py',
   'PYMODULE'),
  ('threading',
   'd:\\ais\\softwares\\development\\anaconda3\\lib\\threading.py',
   'PYMODULE'),
  ('_threading_local',
   'd:\\ais\\softwares\\development\\anaconda3\\lib\\_threading_local.py',
   'PYMODULE'),
  ('string',
   'd:\\ais\\softwares\\development\\anaconda3\\lib\\string.py',
   'PYMODULE'),
  ('bisect',
   'd:\\ais\\softwares\\development\\anaconda3\\lib\\bisect.py',
   'PYMODULE'),
  ('shutil',
   'd:\\ais\\softwares\\development\\anaconda3\\lib\\shutil.py',
   'PYMODULE'),
  ('tarfile',
   'd:\\ais\\softwares\\development\\anaconda3\\lib\\tarfile.py',
   'PYMODULE'),
  ('contextlib',
   'd:\\ais\\softwares\\development\\anaconda3\\lib\\contextlib.py',
   'PYMODULE'),
  ('distutils.util',
   'd:\\ais\\softwares\\development\\anaconda3\\lib\\distutils\\util.py',
   'PYMODULE'),
  ('distutils.filelist',
   'd:\\ais\\softwares\\development\\anaconda3\\lib\\distutils\\filelist.py',
   'PYMODULE'),
  ('distutils.debug',
   'd:\\ais\\softwares\\development\\anaconda3\\lib\\distutils\\debug.py',
   'PYMODULE'),
  ('distutils.file_util',
   'd:\\ais\\softwares\\development\\anaconda3\\lib\\distutils\\file_util.py',
   'PYMODULE'),
  ('distutils.dir_util',
   'd:\\ais\\softwares\\development\\anaconda3\\lib\\distutils\\dir_util.py',
   'PYMODULE'),
  ('distutils.spawn',
   'd:\\ais\\softwares\\development\\anaconda3\\lib\\distutils\\spawn.py',
   'PYMODULE'),
  ('distutils.dep_util',
   'd:\\ais\\softwares\\development\\anaconda3\\lib\\distutils\\dep_util.py',
   'PYMODULE'),
  ('distutils',
   'd:\\ais\\softwares\\development\\anaconda3\\lib\\distutils\\__init__.py',
   'PYMODULE'),
  ('distutils.ccompiler',
   'd:\\ais\\softwares\\development\\anaconda3\\lib\\distutils\\ccompiler.py',
   'PYMODULE'),
  ('distutils.fancy_getopt',
   'd:\\ais\\softwares\\development\\anaconda3\\lib\\distutils\\fancy_getopt.py',
   'PYMODULE'),
  ('distutils.errors',
   'd:\\ais\\softwares\\development\\anaconda3\\lib\\distutils\\errors.py',
   'PYMODULE'),
  ('imp',
   'd:\\ais\\softwares\\development\\anaconda3\\lib\\imp.py',
   'PYMODULE'),
  ('_py_abc',
   'd:\\ais\\softwares\\development\\anaconda3\\lib\\_py_abc.py',
   'PYMODULE'),
  ('stringprep',
   'd:\\ais\\softwares\\development\\anaconda3\\lib\\stringprep.py',
   'PYMODULE'),
  ('tracemalloc',
   'd:\\ais\\softwares\\development\\anaconda3\\lib\\tracemalloc.py',
   'PYMODULE'),
  ('configparser',
   'd:\\ais\\softwares\\development\\anaconda3\\lib\\configparser.py',
   'PYMODULE'),
  ('os', 'd:\\ais\\softwares\\development\\anaconda3\\lib\\os.py', 'PYMODULE')],
 [('api-ms-win-crt-math-l1-1-0.dll',
   'd:\\ais\\softwares\\development\\anaconda3\\api-ms-win-crt-math-l1-1-0.dll',
   'BINARY'),
  ('api-ms-win-crt-stdio-l1-1-0.dll',
   'd:\\ais\\softwares\\development\\anaconda3\\api-ms-win-crt-stdio-l1-1-0.dll',
   'BINARY'),
  ('api-ms-win-crt-locale-l1-1-0.dll',
   'd:\\ais\\softwares\\development\\anaconda3\\api-ms-win-crt-locale-l1-1-0.dll',
   'BINARY'),
  ('VCRUNTIME140.dll',
   'd:\\ais\\softwares\\development\\anaconda3\\VCRUNTIME140.dll',
   'BINARY'),
  ('api-ms-win-crt-heap-l1-1-0.dll',
   'd:\\ais\\softwares\\development\\anaconda3\\api-ms-win-crt-heap-l1-1-0.dll',
   'BINARY'),
  ('python38.dll',
   'd:\\ais\\softwares\\development\\anaconda3\\python38.dll',
   'BINARY'),
  ('api-ms-win-crt-runtime-l1-1-0.dll',
   'd:\\ais\\softwares\\development\\anaconda3\\api-ms-win-crt-runtime-l1-1-0.dll',
   'BINARY'),
  ('ucrtbase.dll',
   'd:\\ais\\softwares\\development\\anaconda3\\ucrtbase.dll',
   'BINARY'),
  ('api-ms-win-crt-string-l1-1-0.dll',
   'd:\\ais\\softwares\\development\\anaconda3\\api-ms-win-crt-string-l1-1-0.dll',
   'BINARY'),
  ('api-ms-win-crt-convert-l1-1-0.dll',
   'd:\\ais\\softwares\\development\\anaconda3\\api-ms-win-crt-convert-l1-1-0.dll',
   'BINARY'),
  ('api-ms-win-crt-time-l1-1-0.dll',
   'd:\\ais\\softwares\\development\\anaconda3\\api-ms-win-crt-time-l1-1-0.dll',
   'BINARY'),
  ('api-ms-win-crt-process-l1-1-0.dll',
   'd:\\ais\\softwares\\development\\anaconda3\\api-ms-win-crt-process-l1-1-0.dll',
   'BINARY'),
  ('api-ms-win-crt-conio-l1-1-0.dll',
   'd:\\ais\\softwares\\development\\anaconda3\\api-ms-win-crt-conio-l1-1-0.dll',
   'BINARY'),
  ('api-ms-win-crt-environment-l1-1-0.dll',
   'd:\\ais\\softwares\\development\\anaconda3\\api-ms-win-crt-environment-l1-1-0.dll',
   'BINARY'),
  ('api-ms-win-crt-filesystem-l1-1-0.dll',
   'd:\\ais\\softwares\\development\\anaconda3\\api-ms-win-crt-filesystem-l1-1-0.dll',
   'BINARY'),
  ('api-ms-win-core-errorhandling-l1-1-0.dll',
   'd:\\ais\\softwares\\development\\anaconda3\\api-ms-win-core-errorhandling-l1-1-0.dll',
   'BINARY'),
  ('api-ms-win-core-heap-l1-1-0.dll',
   'd:\\ais\\softwares\\development\\anaconda3\\api-ms-win-core-heap-l1-1-0.dll',
   'BINARY'),
  ('api-ms-win-core-synch-l1-1-0.dll',
   'd:\\ais\\softwares\\development\\anaconda3\\api-ms-win-core-synch-l1-1-0.dll',
   'BINARY'),
  ('api-ms-win-core-memory-l1-1-0.dll',
   'd:\\ais\\softwares\\development\\anaconda3\\api-ms-win-core-memory-l1-1-0.dll',
   'BINARY'),
  ('api-ms-win-core-file-l1-2-0.dll',
   'd:\\ais\\softwares\\development\\anaconda3\\api-ms-win-core-file-l1-2-0.dll',
   'BINARY'),
  ('api-ms-win-core-file-l2-1-0.dll',
   'd:\\ais\\softwares\\development\\anaconda3\\api-ms-win-core-file-l2-1-0.dll',
   'BINARY'),
  ('api-ms-win-core-util-l1-1-0.dll',
   'd:\\ais\\softwares\\development\\anaconda3\\api-ms-win-core-util-l1-1-0.dll',
   'BINARY'),
  ('api-ms-win-core-handle-l1-1-0.dll',
   'd:\\ais\\softwares\\development\\anaconda3\\api-ms-win-core-handle-l1-1-0.dll',
   'BINARY'),
  ('api-ms-win-core-localization-l1-2-0.dll',
   'd:\\ais\\softwares\\development\\anaconda3\\api-ms-win-core-localization-l1-2-0.dll',
   'BINARY'),
  ('api-ms-win-core-namedpipe-l1-1-0.dll',
   'd:\\ais\\softwares\\development\\anaconda3\\api-ms-win-core-namedpipe-l1-1-0.dll',
   'BINARY'),
  ('api-ms-win-core-processthreads-l1-1-1.dll',
   'd:\\ais\\softwares\\development\\anaconda3\\api-ms-win-core-processthreads-l1-1-1.dll',
   'BINARY'),
  ('api-ms-win-core-processthreads-l1-1-0.dll',
   'd:\\ais\\softwares\\development\\anaconda3\\api-ms-win-core-processthreads-l1-1-0.dll',
   'BINARY'),
  ('api-ms-win-core-rtlsupport-l1-1-0.dll',
   'd:\\ais\\softwares\\development\\anaconda3\\api-ms-win-core-rtlsupport-l1-1-0.dll',
   'BINARY'),
  ('api-ms-win-core-synch-l1-2-0.dll',
   'd:\\ais\\softwares\\development\\anaconda3\\api-ms-win-core-synch-l1-2-0.dll',
   'BINARY'),
  ('api-ms-win-core-datetime-l1-1-0.dll',
   'd:\\ais\\softwares\\development\\anaconda3\\api-ms-win-core-datetime-l1-1-0.dll',
   'BINARY'),
  ('api-ms-win-core-libraryloader-l1-1-0.dll',
   'd:\\ais\\softwares\\development\\anaconda3\\api-ms-win-core-libraryloader-l1-1-0.dll',
   'BINARY'),
  ('api-ms-win-core-timezone-l1-1-0.dll',
   'd:\\ais\\softwares\\development\\anaconda3\\api-ms-win-core-timezone-l1-1-0.dll',
   'BINARY'),
  ('api-ms-win-core-profile-l1-1-0.dll',
   'd:\\ais\\softwares\\development\\anaconda3\\api-ms-win-core-profile-l1-1-0.dll',
   'BINARY'),
  ('api-ms-win-core-debug-l1-1-0.dll',
   'd:\\ais\\softwares\\development\\anaconda3\\api-ms-win-core-debug-l1-1-0.dll',
   'BINARY'),
  ('api-ms-win-core-interlocked-l1-1-0.dll',
   'd:\\ais\\softwares\\development\\anaconda3\\api-ms-win-core-interlocked-l1-1-0.dll',
   'BINARY'),
  ('api-ms-win-core-processenvironment-l1-1-0.dll',
   'd:\\ais\\softwares\\development\\anaconda3\\api-ms-win-core-processenvironment-l1-1-0.dll',
   'BINARY'),
  ('api-ms-win-core-console-l1-1-0.dll',
   'd:\\ais\\softwares\\development\\anaconda3\\api-ms-win-core-console-l1-1-0.dll',
   'BINARY'),
  ('api-ms-win-core-string-l1-1-0.dll',
   'd:\\ais\\softwares\\development\\anaconda3\\api-ms-win-core-string-l1-1-0.dll',
   'BINARY'),
  ('api-ms-win-core-sysinfo-l1-1-0.dll',
   'd:\\ais\\softwares\\development\\anaconda3\\api-ms-win-core-sysinfo-l1-1-0.dll',
   'BINARY'),
  ('api-ms-win-core-file-l1-1-0.dll',
   'd:\\ais\\softwares\\development\\anaconda3\\api-ms-win-core-file-l1-1-0.dll',
   'BINARY'),
  ('select',
   'd:\\ais\\softwares\\development\\anaconda3\\DLLs\\select.pyd',
   'EXTENSION'),
  ('_socket',
   'd:\\ais\\softwares\\development\\anaconda3\\DLLs\\_socket.pyd',
   'EXTENSION'),
  ('_overlapped',
   'd:\\ais\\softwares\\development\\anaconda3\\DLLs\\_overlapped.pyd',
   'EXTENSION'),
  ('_ssl',
   'd:\\ais\\softwares\\development\\anaconda3\\DLLs\\_ssl.pyd',
   'EXTENSION'),
  ('_asyncio',
   'd:\\ais\\softwares\\development\\anaconda3\\DLLs\\_asyncio.pyd',
   'EXTENSION'),
  ('_queue',
   'd:\\ais\\softwares\\development\\anaconda3\\DLLs\\_queue.pyd',
   'EXTENSION'),
  ('unicodedata',
   'd:\\ais\\softwares\\development\\anaconda3\\DLLs\\unicodedata.pyd',
   'EXTENSION'),
  ('_lzma',
   'd:\\ais\\softwares\\development\\anaconda3\\DLLs\\_lzma.pyd',
   'EXTENSION'),
  ('_bz2',
   'd:\\ais\\softwares\\development\\anaconda3\\DLLs\\_bz2.pyd',
   'EXTENSION'),
  ('_ctypes',
   'd:\\ais\\softwares\\development\\anaconda3\\DLLs\\_ctypes.pyd',
   'EXTENSION'),
  ('_multiprocessing',
   'd:\\ais\\softwares\\development\\anaconda3\\DLLs\\_multiprocessing.pyd',
   'EXTENSION'),
  ('pyexpat',
   'd:\\ais\\softwares\\development\\anaconda3\\DLLs\\pyexpat.pyd',
   'EXTENSION'),
  ('_decimal',
   'd:\\ais\\softwares\\development\\anaconda3\\DLLs\\_decimal.pyd',
   'EXTENSION'),
  ('win32evtlog',
   'd:\\ais\\softwares\\development\\anaconda3\\lib\\site-packages\\win32\\win32evtlog.pyd',
   'EXTENSION'),
  ('win32api',
   'd:\\ais\\softwares\\development\\anaconda3\\lib\\site-packages\\win32\\win32api.pyd',
   'EXTENSION'),
  ('_hashlib',
   'd:\\ais\\softwares\\development\\anaconda3\\DLLs\\_hashlib.pyd',
   'EXTENSION'),
  ('_win32sysloader',
   'd:\\ais\\softwares\\development\\anaconda3\\lib\\site-packages\\win32\\_win32sysloader.pyd',
   'EXTENSION'),
  ('libssl-1_1-x64.dll',
   'D:\\AIS\\SOFTWARES\\DEVELOPMENT\\Anaconda3\\Library\\bin\\libssl-1_1-x64.dll',
   'BINARY'),
  ('libcrypto-1_1-x64.dll',
   'D:\\AIS\\SOFTWARES\\DEVELOPMENT\\Anaconda3\\Library\\bin\\libcrypto-1_1-x64.dll',
   'BINARY'),
  ('libffi-7.dll',
   'd:\\ais\\softwares\\development\\anaconda3\\DLLs\\libffi-7.dll',
   'BINARY'),
  ('api-ms-win-crt-utility-l1-1-0.dll',
   'd:\\ais\\softwares\\development\\anaconda3\\api-ms-win-crt-utility-l1-1-0.dll',
   'BINARY'),
  ('pywintypes38.dll',
   'd:\\ais\\softwares\\development\\anaconda3\\lib\\site-packages\\win32\\pywintypes38.dll',
   'BINARY')],
 [],
 [],
 [('base_library.zip',
   'D:\\BAS\\WORKSPACE\\PYTHON\\LABS\\file\\exe\\build\\file_pdpa\\base_library.zip',
   'DATA'),
  ('Include\\pyconfig.h',
   'd:\\ais\\softwares\\development\\anaconda3\\Include\\pyconfig.h',
   'DATA')],
 [])
